Twitter users' age prediction
…
## ## figure of the above proportions
## age_profiles %>%
##     select(platform,time_zone) %>%
##     arrange(time_zone) %>%
##     group_by(time_zone) %>%
##     add_count(platform) %>%
##     mutate(platform = ifelse( platform %in% c('iPhone','Android'),
##                               yes = platform, no = 'Other')) %>%    
##     ggplot(aes(y = n, x = time_zone, fill = platform)) +
##     geom_bar( stat="identity")    

 # A tibble: 1,646 x 5
 # Groups:   time_zone [57]
    platform                    time_zone     n    nn platform_prop
       <chr>                        <chr> <int> <int>         <dbl>
  1   iPhone                     Adelaide     2     2             1
  2   iPhone                     Adelaide     2     2             1
  3  Android             America/New_York     2     2             1
  4  Android             America/New_York     2     2             1
  5   iPhone                     Auckland     1     1             1
  6   iPhone                       Berlin     1     1             1
  7  Android                 Buenos Aires     1     1             1
  8  Android                      Caracas     1     1             1
  9   iPhone International Date Line West     1     1             1
 10   iPhone                      Irkutsk     2     2             1
 # ... with 1,636 more rows
…
mentions %>%
    distinct() %>%    
    count(MentionedID, sort = T) %>%
    left_join(mentions, by = 'MentionedID') %>%
    select(-ID) %>%
    distinct() %>%
    head(20)

 Parsed with column specification:
 cols(
   ID = col_double(),
   MentionedID = col_double(),
   MentionedHandle = col_character()
 )
 # A tibble: 10,046 x 4
	   ID MentionedID MentionedHandle     n
	<dbl>       <dbl>           <chr> <int>
  1 318061601    10228272         YouTube    46
  2 429307371    10228272         YouTube    46
  3 429307371    10228272         YouTube    46
  4 429307371    10228272         YouTube    46
  5  54176816    10228272         YouTube    46
  6 127799707    10228272         YouTube    46
  7 486176491    10228272         YouTube    46
  8  65839204    10228272         YouTube    46
  9  65839204    10228272         YouTube    46
 10  65839204    10228272         YouTube    46
 # ... with 10,036 more rows
…
