Time Series Data Analysis
…
Print the first few rows of the data

dat1

# A tibble: 2,373 x 5
         date day.of.week car.count weather cloud.indicator
       <date>      <fctr>     <int>   <dbl>          <fctr>
 1 2010-01-01      Friday       101     0.1           clear
 2 2010-01-02    Saturday        34     0.2          cloudy
 3 2010-01-03      Sunday       113     0.4           clear
 4 2010-01-04      Monday         5     0.6          cloudy
 5 2010-01-05     Tuesday       124     0.1           clear
 6 2010-01-06   Wednesday       104    -0.1           clear
 7 2010-01-07    Thursday        81    -1.0           clear
 8 2010-01-08      Friday        67    -0.3          cloudy
 9 2010-01-09    Saturday        89     0.2          cloudy
10 2010-01-10      Sunday       132     1.4           clear
# ... with 2,363 more rows
…
